<?xml version="1.0" encoding="utf-8"?>
<!-- Generator: Adobe Illustrator 24.2.3, SVG Export Plug-In . SVG Version: 6.00 Build 0)  -->
<svg version="1.1" id="Layer_1" xmlns="http://www.w3.org/2000/svg" xmlns:xlink="http://www.w3.org/1999/xlink" x="0px" y="0px"
	 viewBox="0 0 612 792" style="enable-background:new 0 0 612 792;" xml:space="preserve">
<style type="text/css">
	.st0{fill:none;stroke:#414042;stroke-miterlimit:10;}
	.st1{fill:none;stroke:#5D52A3;stroke-width:3;stroke-miterlimit:10;}
	.st2{fill:none;stroke:#5D52A3;stroke-miterlimit:10;}
</style>
<polygon class="st0" points="141.68,390.05 145.11,397.97 153.95,394.01 153.95,409.97 143.76,409.97 143.76,418.67 171.12,418.67 
	171.12,410.1 164.1,410.23 164.1,383.73 154.34,383.73 "/>
<circle class="st1" cx="202.9" cy="468.55" r="59.14"/>
<path class="st2" d="M178.74,437h26.64c2.04,0,3.69,1.65,3.69,3.69v57.23c0,2.04-1.65,3.69-3.69,3.69h-26.64
	c-2.04,0-3.69-1.65-3.69-3.69v-57.23C175.04,438.65,176.7,437,178.74,437z"/>
<line class="st2" x1="189.02" y1="443.33" x2="195.62" y2="443.33"/>
<line class="st2" x1="175.04" y1="449.66" x2="209.07" y2="449.66"/>
<line class="st2" x1="175.04" y1="489.75" x2="209.07" y2="489.75"/>
<circle class="st2" cx="191.53" cy="495.95" r="2.51"/>
<path class="st2" d="M178.34,459.42v-4.22c0,0-0.53-2.11,1.45-2.24c1.98-0.13,4.48,0,4.48,0"/>
<path class="st2" d="M199.08,453.28h4.22c0,0,2.11-0.53,2.24,1.45s0,4.48,0,4.48"/>
<path class="st2" d="M184.54,487.42h-4.22c0,0-2.11,0.53-2.24-1.45c-0.13-1.98,0-4.48,0-4.48"/>
<path class="st2" d="M205.64,481.02v4.22c0,0,0.53,2.11-1.45,2.24s-4.48,0-4.48,0"/>
<rect x="190.08" y="461.53" class="st2" width="18.99" height="20.57"/>
<path class="st2" d="M194.03,465.48h8.67v12.66h-8.67c0-1.1,0-2.2,0-3.29C194.03,471.73,194.03,468.61,194.03,465.48z"/>
<rect x="209.25" y="457.84" class="st2" width="32.65" height="28.48"/>
<line class="st2" x1="220.01" y1="464.82" x2="228.71" y2="464.82"/>
<line class="st2" x1="232.67" y1="464.82" x2="237.42" y2="464.82"/>
<line class="st2" x1="220.01" y1="469.31" x2="237.95" y2="469.31"/>
<line class="st2" x1="220.01" y1="474.71" x2="235.04" y2="474.71"/>
<line class="st2" x1="220.01" y1="479.86" x2="230.16" y2="479.86"/>
<path class="st2" d="M194.92,475.01c-0.1-0.39,0.24-1,0.69-1.25c0.47-0.27,0.84-0.02,1.15-0.2c0.35-0.2-0.63-0.85,0.03-3.2
	c0.3-0.71,1.04-1.14,1.78-1.05c0.95,0.11,1.36,1.2,1.52,1.62c0.38,0.99,0.14,1.88,0.03,2.21c0.22,0.11,0.55,0.33,0.86,0.69
	c0.04,0.05,0.76,0.94,0.59,1.45C201.18,476.53,195.26,476.35,194.92,475.01z"/>
</svg>
